…
``` r
n_distinct(instacart$aisle_id)
```

    ## [1] 134

``` r
# find how mant disctint aisles are there 
instacart |>
  group_by(aisle_id) |>
  summarize(n_obs = n()) |>
  arrange(desc(n_obs))
```

    ## # A tibble: 134 × 2
    ##    aisle_id  n_obs
    ##       <int>  <int>
    ##  1       83 150609
    ##  2       24 150473
    ##  3      123  78493
    ##  4      120  55240
    ##  5       21  41699
    ##  6      115  36617
    ##  7       84  32644
    ##  8      107  31269
    ##  9       91  26240
    ## 10      112  23635
    ## # ℹ 124 more rows

``` r
# find which aisle ids are the most items ordered from
instacart |>
  group_by(aisle) |>
  summarize(n_obs = n()) |>
  arrange(desc(n_obs))
```

    ## # A tibble: 134 × 2
    ##    aisle                          n_obs
    ##    <chr>                          <int>
    ##  1 fresh vegetables              150609
    ##  2 fresh fruits                  150473
    ##  3 packaged vegetables fruits     78493
    ##  4 yogurt                         55240
    ##  5 packaged cheese                41699
    ##  6 water seltzer sparkling water  36617
    ##  7 milk                           32644
    ##  8 chips pretzels                 31269
    ##  9 soy lactosefree                26240
    ## 10 bread                          23635
    ## # ℹ 124 more rows
…
brfss_smart_df=
   brfss_smart2010 |> 
  janitor::clean_names() |> 
# format the data to use appropriate variable names
  filter(topic=="Overall Health") |>
# focus on the “Overall Health” topic
  filter(response=="Excellent"|response=="Fair"|response=="Good"|response=="Poor"|response=="Very good") |>
# include only responses from “Excellent” to “Poor”
  mutate(response=as.factor(response)) |> 
  mutate(response=forcats::fct_relevel(response,c("Poor","Fair","Good","Very good","Excellent")))
# organize responses as a factor taking levels ordered from “Poor” to “Excellent”
brfss_smart_df
```

    ## # A tibble: 10,625 × 23
    ##     year locationabbr locationdesc     class topic question response sample_size
    ##    <int> <chr>        <chr>            <chr> <chr> <chr>    <fct>          <int>
    ##  1  2010 AL           AL - Jefferson … Heal… Over… How is … Excelle…          94
    ##  2  2010 AL           AL - Jefferson … Heal… Over… How is … Very go…         148
    ##  3  2010 AL           AL - Jefferson … Heal… Over… How is … Good             208
    ##  4  2010 AL           AL - Jefferson … Heal… Over… How is … Fair             107
    ##  5  2010 AL           AL - Jefferson … Heal… Over… How is … Poor              45
    ##  6  2010 AL           AL - Mobile Cou… Heal… Over… How is … Excelle…          91
    ##  7  2010 AL           AL - Mobile Cou… Heal… Over… How is … Very go…         177
    ##  8  2010 AL           AL - Mobile Cou… Heal… Over… How is … Good             224
    ##  9  2010 AL           AL - Mobile Cou… Heal… Over… How is … Fair             120
    ## 10  2010 AL           AL - Mobile Cou… Heal… Over… How is … Poor              66
    ## # ℹ 10,615 more rows
    ## # ℹ 15 more variables: data_value <dbl>, confidence_limit_low <dbl>,
    ## #   confidence_limit_high <dbl>, display_order <int>, data_value_unit <chr>,
    ## #   data_value_type <chr>, data_value_footnote_symbol <chr>,
    ## #   data_value_footnote <chr>, data_source <chr>, class_id <chr>,
    ## #   topic_id <chr>, location_id <chr>, question_id <chr>, respid <chr>,
    ## #   geo_location <chr>
…
